[0924/101429.393:ERROR:registration_protocol_win.cc(103)] CreateFile: Das System kann die angegebene Datei nicht finden. (0x2)
[0924/101429.910:ERROR:registration_protocol_win.cc(103)] CreateFile: Das System kann die angegebene Datei nicht finden. (0x2)
[0924/101434.086:ERROR:registration_protocol_win.cc(103)] CreateFile: Das System kann die angegebene Datei nicht finden. (0x2)
